Vignette: Intro to healthiar
…
are available.

Note: We will inspect the results for females; male results
are also available.

Results per year

NOTE: only a selection of years is shown.

results_pm_yll$health_detailed$results_raw |>
  dplyr::summarize(
    .by = year, 
    impact = sum(impact, na.rm = TRUE)
  )
#> # A tibble: 100 × 2
#>    year  impact
#>    <chr>  <dbl>
#>  1 2019   1300.
#>  2 2020   2422.
#>  3 2021   2221.
#>  4 2022   2033.
#>  5 2023   1858.
#>  6 2024   1695.
#>  7 2025   1545.
#>  8 2026   1409.
#>  9 2027   1284.
#> 10 2028   1171.
#> # ℹ 90 more rows
…
